<svg xmlns="http://www.w3.org/2000/svg" xmlns:xlink="http://www.w3.org/1999/xlink" width="279" height="53" viewBox="0 0 279 53">
    <defs>
        <path id="a" d="M26.154.692C11.71.692 0 12.401 0 26.846 0 41.218 11.594 52.884 25.939 53h.43c14.346-.116 25.939-11.782 25.939-26.154C52.308 12.401 40.599.692 26.154.692z"/>
        <linearGradient id="b" x1="50%" x2="50%" y1="0%" y2="100%">
            <stop offset="0%" stop-color="#3F3F41"/>
            <stop offset="100%" stop-color="#1C1C1A"/>
        </linearGradient>
        <path id="d" d="M26.582.692C12.138.692.428 12.401.428 26.846.428 41.218 12.022 52.884 26.367 53h.431c14.345-.116 25.939-11.782 25.939-26.154 0-14.445-11.71-26.154-26.155-26.154z"/>
        <linearGradient id="e" x1="50%" x2="50%" y1="0%" y2="100%">
            <stop offset="0%" stop-color="#3F3F41"/>
            <stop offset="100%" stop-color="#1C1C1A"/>
        </linearGradient>
        <path id="g" d="M27.011.692C12.567.692.857 12.401.857 26.846.857 41.218 12.451 52.884 26.796 53h.431c14.344-.116 25.939-11.782 25.939-26.154C53.166 12.401 41.455.692 27.011.692z"/>
        <linearGradient id="h" x1="50%" x2="50%" y1="0%" y2="100%">
            <stop offset="0%" stop-color="#3F3F41"/>
            <stop offset="100%" stop-color="#1C1C1A"/>
        </linearGradient>
        <path id="j" d="M26.44.692C11.996.692.286 12.401.286 26.846.286 41.218 11.88 52.884 26.225 53h.431C41 52.884 52.594 41.218 52.594 26.846 52.594 12.401 40.884.692 26.44.692z"/>
        <linearGradient id="k" x1="50%" x2="50%" y1="0%" y2="100%">
            <stop offset="0%" stop-color="#3F3F41"/>
            <stop offset="100%" stop-color="#1C1C1A"/>
        </linearGradient>
    </defs>
    <g fill="none" fill-rule="evenodd">
        <g transform="translate(0 -.692)">
            <mask id="c" fill="#fff">
                <use xlink:href="#a"/>
            </mask>
            <path fill="url(#b)" d="M26.154.692C11.71.692 0 12.401 0 26.846 0 41.218 11.594 52.884 25.939 53h.43c14.346-.116 25.939-11.782 25.939-26.154C52.308 12.401 40.599.692 26.154.692z" mask="url(#c)"/>
        </g>
        <g transform="translate(75 -.692)">
            <mask id="f" fill="#fff">
                <use xlink:href="#d"/>
            </mask>
            <path fill="url(#e)" d="M26.582.692C12.138.692.428 12.401.428 26.846.428 41.218 12.022 52.884 26.367 53h.431c14.345-.116 25.939-11.782 25.939-26.154 0-14.445-11.71-26.154-26.155-26.154z" mask="url(#f)"/>
        </g>
        <g transform="translate(150 -.692)">
            <mask id="i" fill="#fff">
                <use xlink:href="#g"/>
            </mask>
            <path fill="url(#h)" d="M27.011.692C12.567.692.857 12.401.857 26.846.857 41.218 12.451 52.884 26.796 53h.431c14.344-.116 25.939-11.782 25.939-26.154C53.166 12.401 41.455.692 27.011.692z" mask="url(#i)"/>
        </g>
        <g transform="translate(226 -.692)">
            <mask id="l" fill="#fff">
                <use xlink:href="#j"/>
            </mask>
            <path fill="url(#k)" d="M26.44.692C11.996.692.286 12.401.286 26.846.286 41.218 11.88 52.884 26.225 53h.431C41 52.884 52.594 41.218 52.594 26.846 52.594 12.401 40.884.692 26.44.692z" mask="url(#l)"/>
        </g>
        <g fill="#F1F1F2">
            <path d="M186.624 24.855l-4.873-2.844a1309.22 1309.22 0 0 1-3.95-2.306l-5.052-2.839c-1.086-.636-2.154-.12-2.154 1.132v16.018c0 1.259 1.068 1.77 2.154 1.134l4.963-2.841c1.085-.634 2.908-1.673 3.994-2.306l4.896-2.841c1.087-.636 1.11-1.673.022-2.306M36.32 16.866l-4.626 2.84c-1.088.636-3.07 1.675-4.157 2.306l-1.17.564v-4.578c0-1.253-.562-1.768-1.65-1.132l-4.707 2.84c-1.087.636-2.784 1.675-3.871 2.306l-4.833 2.843c-1.088.633-1.066 1.67.02 2.306l4.884 2.842 3.957 2.305 4.549 2.841c1.086.637 1.65.125 1.65-1.134v-4.578l1.293.566c1.088.633 3.028 1.672 4.116 2.305l4.465 2.841c1.087.637 1.567.125 1.567-1.134V17.998c0-1.253-.4-1.768-1.486-1.132M267.756 24.855l-4.87-2.844c-1.088-.63-2.866-1.67-3.956-2.306l-5.033-2.839c-1.088-.636-2.14-.12-2.14 1.132v4.578l-.803-.565c-1.086-.63-2.784-1.67-3.869-2.306l-4.834-2.839c-1.088-.636-1.934-.12-1.934 1.132v16.018c0 1.259.89 1.77 1.977 1.134l4.87-2.841c1.088-.634 2.704-1.673 3.79-2.306l.802-.565v4.578c0 1.259 1.053 1.77 2.141 1.134l4.954-2.841c1.085-.634 2.904-1.673 3.992-2.306l4.893-2.841c1.088-.636 1.108-1.673.02-2.306M99.294 35.16a2.287 2.287 0 0 1-2.287 2.29H94.72a2.286 2.286 0 0 1-2.287-2.29V19.146a2.287 2.287 0 0 1 2.287-2.288h2.288a2.288 2.288 0 0 1 2.287 2.288V35.16zM110.734 35.16a2.286 2.286 0 0 1-2.287 2.29h-2.287a2.286 2.286 0 0 1-2.29-2.29V19.146a2.287 2.287 0 0 1 2.29-2.288h2.287a2.287 2.287 0 0 1 2.287 2.288V35.16z"/>
        </g>
    </g>
</svg>
