<svg xmlns="http://www.w3.org/2000/svg" width="112" height="112" viewBox="0 0 112 112">
    <defs>
        <linearGradient id="a" x1="50%" x2="50%" y1="3.511%" y2="99.16%">
            <stop offset="0%" stop-color="#EF2514"/>
            <stop offset="100%" stop-color="#6F120D"/>
        </linearGradient>
    </defs>
    <g fill="none" fill-rule="evenodd">
        <path fill="#5C5C5C" d="M-443-132H957v888H-443z"/>
        <path fill="url(#a)" fill-rule="nonzero" d="M0 0h112v112H0z"/>
        <path fill="#FFF" d="M80.163 61v16.9h-47.02V61H24v26h64V61h-7.837zM77.29 47.48H65.796V22H46.204v25.48H34.71l21.16 26.26 21.42-26.26z"/>
    </g>
</svg>
