<svg xmlns="http://www.w3.org/2000/svg" xmlns:xlink="http://www.w3.org/1999/xlink" width="20" height="20" viewBox="0 0 20 20">
    <defs>
        <path id="a" d="M0 10C0 4.478 4.476 0 10 0c5.523 0 10 4.478 10 10 0 5.523-4.477 10-10 10-5.524 0-10-4.477-10-10zm11.644 3.398a1.241 1.241 0 0 0 1.754-1.754l-1.636-1.635 1.636-1.636a1.241 1.241 0 0 0-1.754-1.754l-1.635 1.635-1.642-1.64a1.239 1.239 0 0 0-1.753 0 1.239 1.239 0 0 0 0 1.753l1.64 1.64-1.64 1.642a1.239 1.239 0 0 0 0 1.754c.484.484 1.27.484 1.753 0l1.642-1.64 1.635 1.635z"/>
    </defs>
    <g fill="none" fill-rule="evenodd">
        <mask id="b" fill="#fff">
            <use xlink:href="#a"/>
        </mask>
        <g fill="#3D4143" mask="url(#b)">
            <path d="M0 0h20v20H0z"/>
        </g>
    </g>
</svg>
